{
  "name": "movies-feature-movie-detail",
  "$schema": "../../../node_modules/nx/schemas/project-schema.json",
  "projectType": "library",
  "sourceRoot": "libs/movie/feature-movie-detail/src",
  "prefix": "ult",
  "targets": {
    "build": {
      "executor": "@nrwl/angular:ng-packagr-lite",
      "outputs": ["{workspaceRoot}/dist/{projectRoot}"],
      "options": {
        "project": "libs/movie/feature-movie-detail/ng-package.json"
      },
      "configurations": {
        "production": {
          "tsConfig": "libs/movie/feature-movie-detail/tsconfig.lib.prod.json"
        },
        "development": {
          "tsConfig": "libs/movie/feature-movie-detail/tsconfig.lib.json"
        }
      },
      "defaultConfiguration": "production"
    },
    "test": {
      "executor": "@nrwl/jest:jest",
      "outputs": ["{workspaceRoot}/coverage/{projectRoot}"],
      "options": {
        "jestConfig": "libs/movie/feature-movie-detail/jest.config.ts",
        "passWithNoTests": true
      }
    },
    "lint": {
      "executor": "@nrwl/linter:eslint",
      "options": {
        "lintFilePatterns": [
          "libs/movie/feature-movie-detail/**/*.ts",
          "libs/movie/feature-movie-detail/**/*.html"
        ]
      }
    }
  },
  "tags": ["type:feature", "scope:movie"]
}
